[symbol2]
bbox 32 32 704 320
uniq 4
[tools]
[attributes]
p 32 0 100 0 1 setIs:is $(top)is:
[layers]
<symbol>
l 100 0 0 308 171 flamIsTop
r 0 32 32 704 320
[comments]
RCS: $Name:  $ $Id: flamIsTop.sym,v 0.0 2005/09/01 20:20:10 drashkin Exp $
