[symbol2]
bbox 32 32 768 384
uniq 394
[tools]
[attributes]
[layers]
<symbol>
r 0 32 32 768 384
l 100 0 0 316 203 trecsDcCommand
[comments]
RCS: "$Name:  $ $Id: trecsDcCommand.sym,v 0.0 2003/04/25 15:21:15 hon Developmental $"
