[symbol2]
bbox 32 32 704 320
uniq 4
[tools]
[attributes]
p 32 0 100 0 1 setIs:is $(top)is:
[layers]
<symbol>
l 100 0 0 308 171 trecsIsTop
r 0 32 32 704 320
[comments]
RCS: $Name:  $ $Id: trecsIsTop.sym,v 0.0 2003/04/25 15:21:15 hon Developmental $
