[symbol2]
bbox 32 32 448 608
uniq 3
[tools]
[attributes]
[layers]
<symbol>
r 0 32 32 448 608
l 100 0 0 186 315 trecsMain
[comments]
RCS: $Name:  $ $Id: trecsMain.sym,v 0.0 2003/04/25 15:21:15 hon Developmental $
