[symbol2]
bbox 32 96 416 480
uniq 149
[tools]
[attributes]
[layers]
<symbol>
l 100 0 0 144 128 trecsIsApplyC
r 0 32 96 416 480
[comments]
RCS: $Name:  $ $Id: trecsApplyC.sym,v 0.0 2003/04/25 15:21:15 hon Developmental $
