[symbol2]
bbox 32 32 352 224
port 48 96 100 0 SLINK symbol 1 32 96 0
port 48 160 100 0 ENABLE symbol 1 32 160 0
port 272 128 100 0 FLINK symbol 2 352 128 0
uniq 142
[tools]
[attributes]
p 32 0 100 0 1 setSystem:system dc
[layers]
<symbol>
l 100 0 0 96 48 trecsLinkEnable
r 0 32 32 352 224
[comments]
RCS: $Name:  $ $Id: trecsLinkEnable.sym,v 0.0 2003/04/25 15:21:15 hon Developmental $
