[symbol2]
bbox 32 32 320 288
uniq 46
[tools]
[attributes]
[layers]
<symbol>
l 100 0 0 50 155 flamSadDcEngineering
r 0 32 32 320 288
[comments]
RCS: $Name:  $ $Id: flamSadDcEngineering.sym,v 0.0 2006/06/21 15:20:21 hon Exp $
