[symbol2]
bbox 32 32 320 352
port 64 128 100 0 ENABLE symbol 1 32 128 0
port 64 192 100 0 START symbol 1 32 192 0
port 240 192 100 0 FLNK symbol 2 320 192 0
uniq 47
[tools]
[attributes]
[layers]
<symbol>
l 100 0 0 96 64 flamIsEcUpdate
r 0 32 32 320 352
[comments]
RCS: $Name:  $ $Id: flamIsEcUpdate.sym,v 0.0 2006/06/21 15:20:21 hon Exp $
