[symbol2]
bbox -224 -32 128 224
port -224 70 100 0 DIR symbol 1 -224 64 0
port 128 70 100 0 VAL symbol 2 128 64 0
port 128 6 100 0 MESS symbol 2 128 0 0
uniq 0
[tools]
[attributes]
[layers]
<symbol>
l 200 0 0 -144 160 confwcs
r 0 -224 -32 128 224
v 0 -224 128
128 128
_
[comments]
