
boot device          : ei
processor number     : 0
host name            : irflam2a
file name            : /gemini/vxworks/tornado2.0/68k/target/config/mv167/nodebug/vxWorks
inet on ethernet (e) : 192.168.111.198:ffffff00
host inet (h)        : 192.168.111.222
user (u)             : hon
flags (f)            : 0x8
target name (tn)     : vme68k
startup script (s)   : /share/local/flam/68k.epics/bin/mv167/startup
