[symbol2]
bbox 32 32 320 288
uniq 46
[tools]
[attributes]
[layers]
<symbol>
r 0 32 32 320 288
l 100 0 0 80 155 trecsSadCcStatus
[comments]
RCS: $Name:  $ $Id: trecsSadCcStatus.sym,v 0.1 2003/02/15 03:02:14 trecs beta $
