[symbol2]
bbox -560 -1088 496 384
uniq 0
[tools]
[attributes]
p -272 160 100 512 -1 set0010:oms58X C2 S0
p -272 128 100 512 -1 set0011:oms58Y C2 S1
p -272 96 100 512 -1 set0012:oms58Z C2 S2
p -272 64 100 512 -1 set0014:oms58T C2 S3
p 64 160 100 512 -1 set0020:ap0b0 C0 S24
p 64 128 100 512 -1 set0021:ap0b1 C0 S25
p 64 96 100 512 -1 set0022:ap0b2 C0 S26
p 64 64 100 512 -1 set0023:ap0b3 C0 S27
p 64 32 100 512 -1 set0024:ap0b4 C0 S28
p 64 0 100 512 -1 set0025:ap0b5 C0 S29
p 64 -32 100 512 -1 set0026:ap0b6 C0 S30
p 64 -64 100 512 -1 set0027:ap0b7 C0 S31
p 64 -144 100 512 -1 set0030:ap1b0 C0 S16
p 64 -176 100 512 -1 set0031:ap1b1 C0 S17
p 64 -208 100 512 -1 set0032:ap1b2 C0 S18
p 64 -240 100 512 -1 set0033:ap1b3 C0 S19
p 64 -272 100 512 -1 set0034:ap1b4 C0 S20
p 64 -304 100 512 -1 set0035:ap1b5 C0 S21
p 64 -336 100 512 -1 set0036:ap1b6 C0 S22
p 64 -368 100 512 -1 set0037:ap1b7 C0 S23
p 48 -448 100 512 -1 set0040:ap2b0 C0 S8
p 48 -480 100 512 -1 set0041:ap2b1 C0 S9
p 64 -512 100 512 -1 set0042:ap2b2 C0 S10
p 64 -544 100 512 -1 set0043:ap2b3 C0 S11
p 64 -576 100 512 -1 set0044:ap2b4 C0 S12
p 64 -608 100 512 -1 set0045:ap2b5 C0 S13
p 64 -640 100 512 -1 set0046:ap2b6 C0 S14
p 64 -672 100 512 -1 set0047:ap2b7 C0 S15
p 48 -752 100 512 -1 set0050:ap3b0 C0 S0
p 48 -784 100 512 -1 set0051:ap3b1 C0 S1
p 48 -816 100 512 -1 set0052:ap3b2 C0 S2
p 48 -848 100 512 -1 set0053:ap3b3 C0 S3
p 48 -880 100 512 -1 set0054:ap3b4 C0 S4
p 48 -912 100 512 -1 set0055:ap3b5 C0 S5
p 48 -944 100 512 -1 set0056:ap3b6 C0 S6
p 48 -976 100 512 -1 set0057:ap3b7 C0 S7
p 416 160 100 512 -1 set0060:ap4b0 C0 S24
p 416 128 100 512 -1 set0061:ap4b1 C0 S25
p 416 96 100 512 -1 set0062:ap4b2 C0 S26
p 416 64 100 512 -1 set0063:ap4b3 C0 S27
p 416 32 100 512 -1 set0064:ap4b4 C0 S28
p 416 0 100 512 -1 set0065:ap4b5 C0 S29
p 416 -32 100 512 -1 set0066:ap4b6 C0 S30
p 416 -64 100 512 -1 set0067:ap4b7 C0 S31
p 416 -144 100 512 -1 set0070:ap5b0 C0 S16
p 416 -176 100 512 -1 set0071:ap5b1 C0 S17
p 416 -208 100 512 -1 set0072:ap5b2 C0 S18
p 416 -240 100 512 -1 set0073:ap5b3 C0 S19
p 416 -272 100 512 -1 set0074:ap5b4 C0 S20
p 416 -304 100 512 -1 set0075:ap5b5 C0 S21
p 416 -336 100 512 -1 set0076:ap5b6 C0 S22
p 416 -368 100 512 -1 set0077:ap5b7 C0 S23
p 400 -448 100 512 -1 set0080:ap6b0 C0 S8
p 400 -480 100 512 -1 set0081:ap6b1 C0 S9
p 416 -512 100 512 -1 set0082:ap6b2 C0 S10
p 416 -544 100 512 -1 set0083:ap6b3 C0 S11
p 416 -576 100 512 -1 set0084:ap6b4 C0 S12
p 416 -608 100 512 -1 set0085:ap6b5 C0 S13
p 416 -640 100 512 -1 set0086:ap6b6 C0 S14
p 416 -672 100 512 -1 set0087:ap6b7 C0 S15
p 400 -752 100 512 -1 set0090:ap7b0 C0 S0
p 400 -784 100 512 -1 set0091:ap7b1 C0 S1
p 400 -816 100 512 -1 set0092:ap7b2 C0 S2
p 400 -848 100 512 -1 set0093:ap7b3 C0 S3
p 400 -880 100 512 -1 set0094:ap7b4 C0 S4
p 400 -912 100 512 -1 set0095:ap7b5 C0 S5
p 400 -944 100 512 -1 set0096:ap7b6 C0 S6
p 400 -976 100 512 -1 set0097:ap7b7 C0 S7
[layers]
<symbol>
l 100 2 0 -336 -1056 f2OPC
l 200 1 0 -32 320 Flamingos 2 OPC Hardware I/O
l 100 0 0 -480 256 1st OMS VME58-4E
l 100 0 0 -480 64 T
l 100 0 0 -480 96 Z
l 100 0 0 -480 128 Y
l 100 0 0 -480 160 X
l 100 0 0 -192 256 1st Xycom 240
l 100 0 0 -192 192 Port 0 Inputs
l 100 0 0 -192 160 Bit 0
l 100 0 0 -192 128 Bit 1
l 100 0 0 -192 96 Bit 2
l 100 0 0 -192 64 Bit 3
l 100 0 0 -192 32 Bit 4
l 100 0 0 -192 0 Bit 5
l 100 0 0 -192 -32 Bit 6
l 100 0 0 -192 -64 Bit 7
l 100 0 0 -192 -112 Port 1 Inputs
l 100 0 0 -192 -144 Bit 0
l 100 0 0 -192 -176 Bit 1
l 100 0 0 -192 -208 Bit 2
l 100 0 0 -192 -240 Bit 3
l 100 0 0 -192 -272 Bit 4
l 100 0 0 -192 -304 Bit 5
l 100 0 0 -192 -336 Bit 6
l 100 0 0 -192 -368 Bit 7
l 100 0 0 -192 -672 Bit 7
l 100 0 0 -192 -640 Bit 6
l 100 0 0 -192 -608 Bit 5
l 100 0 0 -192 -576 Bit 4
l 100 0 0 -192 -544 Bit 3
l 100 0 0 -192 -512 Bit 2
l 100 0 0 -192 -480 Bit 1
l 100 0 0 -192 -448 Bit 0
l 100 0 0 -192 -416 Port 2 Inputs
l 100 0 0 -192 -720 Port 3 Inputs
l 100 0 0 -192 -752 Bit 0
l 100 0 0 -192 -784 Bit 1
l 100 0 0 -192 -816 Bit 2
l 100 0 0 -192 -848 Bit 3
l 100 0 0 -192 -880 Bit 4
l 100 0 0 -192 -912 Bit 5
l 100 0 0 -192 -944 Bit 6
l 100 0 0 -192 -976 Bit 7
l 100 0 0 160 192 Port 4 Outputs
l 100 0 0 160 160 Bit 0
l 100 0 0 160 128 Bit 1
l 100 0 0 160 96 Bit 2
l 100 0 0 160 64 Bit 3
l 100 0 0 160 32 Bit 4
l 100 0 0 160 0 Bit 5
l 100 0 0 160 -32 Bit 6
l 100 0 0 160 -64 Bit 7
l 100 0 0 160 -112 Port 5 Outputs
l 100 0 0 160 -144 Bit 0
l 100 0 0 160 -176 Bit 1
l 100 0 0 160 -208 Bit 2
l 100 0 0 160 -240 Bit 3
l 100 0 0 160 -272 Bit 4
l 100 0 0 160 -304 Bit 5
l 100 0 0 160 -336 Bit 6
l 100 0 0 160 -368 Bit 7
l 100 0 0 160 -672 Bit 7
l 100 0 0 160 -640 Bit 6
l 100 0 0 160 -608 Bit 5
l 100 0 0 160 -576 Bit 4
l 100 0 0 160 -544 Bit 3
l 100 0 0 160 -512 Bit 2
l 100 0 0 160 -480 Bit 1
l 100 0 0 160 -448 Bit 0
l 100 0 0 160 -416 Port 6 Oututs
l 100 0 0 160 -720 Port 7 Outputs
l 100 0 0 160 -752 Bit 0
l 100 0 0 160 -784 Bit 1
l 100 0 0 160 -816 Bit 2
l 100 0 0 160 -848 Bit 3
l 100 0 0 160 -880 Bit 4
l 100 0 0 160 -912 Bit 5
l 100 0 0 160 -944 Bit 6
l 100 0 0 160 -976 Bit 7
l 100 0 0 -480 192 Motor Axis
r 0 -560 -1088 496 384
r 0 -224 -1024 448 288
r 0 -512 32 -256 288
v 0 -512 240
-256 240
_
v 0 -224 240
448 240
_
[comments]
