%!PS-Adobe-2.0 EPSF-1.2
%%Title: (stdin)
%%Creator: Phase Three Logic, Inc.'s schps, Release 2.2.74
%%CreationDate: Tue Jun 14 11:27:52 2005
%%BoundingBox: 274 31 314 768
%%DocumentFonts: Courier
%%EndComments
/d0 {[] 0} bind def
/d1 {[2] 0} bind def
/d2 {[4] 0} bind def
/d3 {[1 4 4 1] 0} bind def
/d4 {[1] 0} bind def
/l {setdash setlinewidth newpath moveto lineto stroke} bind def
/a {setdash setlinewidth newpath arc stroke} bind def
/c {newpath 0.2 setlinewidth arc fill} bind def
/t {/Courier findfont [1 0 0 1.5 0 0] makefont exch scalefont setfont moveto gsave rotate show grestore} bind def
%%EndProlog
1 setlinecap
284.0 758.1 284.0 768.1 0.3 d0 l
287.4 754.8 284.0 758.1 0.3 d0 l
307.3 754.8 287.4 754.8 0.3 d0 l
310.6 758.1 307.3 754.8 0.3 d0 l
310.6 768.1 310.6 758.1 0.3 d0 l
284.0 768.1 310.6 768.1 0.3 d0 l
287.4 738.2 297.3 738.2 0.3 d0 l
284.0 741.5 287.4 738.2 0.3 d0 l
284.0 744.9 284.0 741.5 0.3 d0 l
287.4 748.2 284.0 744.9 0.3 d0 l
297.3 748.2 287.4 748.2 0.3 d0 l
287.4 738.2 284.0 734.9 0.3 d0 l
284.0 728.3 297.3 728.3 0.3 d0 l
294.0 721.6 287.4 721.6 0.3 d0 l
297.3 724.9 294.0 721.6 0.3 d0 l
294.0 728.3 297.3 724.9 0.3 d0 l
294.0 715.0 284.0 715.0 0.3 d0 l
297.3 718.3 294.0 715.0 0.3 d0 l
294.0 721.6 297.3 718.3 0.3 d0 l
284.0 708.3 297.3 708.3 0.3 d0 l
294.0 701.7 287.4 701.7 0.3 d0 l
297.3 705.0 294.0 701.7 0.3 d0 l
294.0 708.3 297.3 705.0 0.3 d0 l
294.0 695.1 284.0 695.1 0.3 d0 l
297.3 698.4 294.0 695.1 0.3 d0 l
294.0 701.7 297.3 698.4 0.3 d0 l
284.0 685.1 284.0 675.1 0.3 d0 l
287.4 688.4 284.0 685.1 0.3 d0 l
297.3 688.4 287.4 688.4 0.3 d0 l
274.1 685.1 277.4 688.4 0.3 d0 l
274.1 678.5 274.1 685.1 0.3 d0 l
277.4 675.1 274.1 678.5 0.3 d0 l
297.3 675.1 277.4 675.1 0.3 d0 l
297.3 645.3 297.3 638.6 0.3 d0 l
294.0 648.6 297.3 645.3 0.3 d0 l
290.7 645.3 294.0 648.6 0.3 d0 l
290.7 638.6 290.7 645.3 0.3 d0 l
287.4 635.3 290.7 638.6 0.3 d0 l
284.0 638.6 287.4 635.3 0.3 d0 l
284.0 648.6 284.0 638.6 0.3 d0 l
297.3 618.7 294.0 615.4 0.3 d0 l
297.3 625.4 297.3 618.7 0.3 d0 l
294.0 628.7 297.3 625.4 0.3 d0 l
287.4 628.7 294.0 628.7 0.3 d0 l
284.0 625.4 287.4 628.7 0.3 d0 l
284.0 618.7 284.0 625.4 0.3 d0 l
287.4 615.4 284.0 618.7 0.3 d0 l
284.0 608.8 310.6 608.8 0.3 d0 l
294.0 595.5 284.0 595.5 0.3 d0 l
297.3 598.8 294.0 595.5 0.3 d0 l
297.3 605.4 297.3 598.8 0.3 d0 l
294.0 608.8 297.3 605.4 0.3 d0 l
284.0 585.5 284.0 575.6 0.3 d0 l
287.4 588.8 284.0 585.5 0.3 d0 l
294.0 588.8 287.4 588.8 0.3 d0 l
297.3 585.5 294.0 588.8 0.3 d0 l
297.3 578.9 297.3 585.5 0.3 d0 l
294.0 575.6 297.3 578.9 0.3 d0 l
290.7 575.6 294.0 575.6 0.3 d0 l
290.7 588.8 290.7 575.6 0.3 d0 l
284.0 568.9 297.3 568.9 0.3 d0 l
294.0 562.3 287.4 562.3 0.3 d0 l
297.3 565.6 294.0 562.3 0.3 d0 l
294.0 568.9 297.3 565.6 0.3 d0 l
294.0 555.6 284.0 555.6 0.3 d0 l
297.3 559.0 294.0 555.6 0.3 d0 l
294.0 562.3 297.3 559.0 0.3 d0 l
287.4 549.0 284.0 545.7 0.3 d0 l
294.0 549.0 287.4 549.0 0.3 d0 l
297.3 545.7 294.0 549.0 0.3 d0 l
297.3 539.0 297.3 545.7 0.3 d0 l
294.0 535.7 297.3 539.0 0.3 d0 l
287.4 535.7 294.0 535.7 0.3 d0 l
284.0 539.0 287.4 535.7 0.3 d0 l
284.0 545.7 284.0 539.0 0.3 d0 l
284.0 535.7 297.3 535.7 0.3 d0 l
287.4 522.4 284.0 519.1 0.3 d0 l
310.6 522.4 287.4 522.4 0.3 d0 l
300.6 525.8 300.6 519.1 0.3 d0 l
304.0 502.5 300.6 502.5 0.3 d0 l
287.4 502.5 284.0 499.2 0.3 d0 l
297.3 502.5 287.4 502.5 0.3 d0 l
297.3 479.3 294.0 476.0 0.3 d0 l
297.3 485.9 297.3 479.3 0.3 d0 l
294.0 489.2 297.3 485.9 0.3 d0 l
287.4 489.2 294.0 489.2 0.3 d0 l
284.0 485.9 287.4 489.2 0.3 d0 l
284.0 479.3 284.0 485.9 0.3 d0 l
287.4 476.0 284.0 479.3 0.3 d0 l
287.4 442.8 284.0 439.4 0.3 d0 l
310.6 442.8 287.4 442.8 0.3 d0 l
300.6 446.1 300.6 439.4 0.3 d0 l
294.0 416.2 287.4 416.2 0.3 d0 l
297.3 419.5 294.0 416.2 0.3 d0 l
297.3 426.2 297.3 419.5 0.3 d0 l
294.0 429.5 297.3 426.2 0.3 d0 l
287.4 429.5 294.0 429.5 0.3 d0 l
284.0 426.2 287.4 429.5 0.3 d0 l
284.0 419.5 284.0 426.2 0.3 d0 l
287.4 416.2 284.0 419.5 0.3 d0 l
284.0 389.6 310.6 389.6 0.3 d0 l
304.0 376.4 290.7 389.6 0.3 d0 l
294.0 386.3 284.0 376.4 0.3 d0 l
284.0 366.4 284.0 356.4 0.3 d0 l
287.4 369.7 284.0 366.4 0.3 d0 l
294.0 369.7 287.4 369.7 0.3 d0 l
297.3 366.4 294.0 369.7 0.3 d0 l
297.3 359.8 297.3 366.4 0.3 d0 l
294.0 356.4 297.3 359.8 0.3 d0 l
290.7 356.4 294.0 356.4 0.3 d0 l
290.7 369.7 290.7 356.4 0.3 d0 l
284.0 346.5 284.0 336.5 0.3 d0 l
287.4 349.8 284.0 346.5 0.3 d0 l
294.0 349.8 287.4 349.8 0.3 d0 l
297.3 346.5 294.0 349.8 0.3 d0 l
297.3 339.8 297.3 346.5 0.3 d0 l
294.0 336.5 297.3 339.8 0.3 d0 l
290.7 336.5 294.0 336.5 0.3 d0 l
290.7 349.8 290.7 336.5 0.3 d0 l
284.0 319.9 284.0 329.9 0.3 d0 l
287.4 316.6 284.0 319.9 0.3 d0 l
294.0 316.6 287.4 316.6 0.3 d0 l
297.3 319.9 294.0 316.6 0.3 d0 l
297.3 329.9 297.3 319.9 0.3 d0 l
274.1 329.9 297.3 329.9 0.3 d0 l
297.3 280.1 294.0 276.8 0.3 d0 l
297.3 286.7 297.3 280.1 0.3 d0 l
294.0 290.0 297.3 286.7 0.3 d0 l
287.4 290.0 294.0 290.0 0.3 d0 l
284.0 286.7 287.4 290.0 0.3 d0 l
284.0 280.1 284.0 286.7 0.3 d0 l
287.4 276.8 284.0 280.1 0.3 d0 l
287.4 270.1 284.0 266.8 0.3 d0 l
294.0 270.1 287.4 270.1 0.3 d0 l
297.3 266.8 294.0 270.1 0.3 d0 l
297.3 260.2 297.3 266.8 0.3 d0 l
294.0 256.8 297.3 260.2 0.3 d0 l
287.4 256.8 294.0 256.8 0.3 d0 l
284.0 260.2 287.4 256.8 0.3 d0 l
284.0 266.8 284.0 260.2 0.3 d0 l
284.0 256.8 297.3 256.8 0.3 d0 l
284.0 240.2 284.0 250.2 0.3 d0 l
287.4 236.9 284.0 240.2 0.3 d0 l
294.0 236.9 287.4 236.9 0.3 d0 l
297.3 240.2 294.0 236.9 0.3 d0 l
297.3 250.2 297.3 240.2 0.3 d0 l
274.1 250.2 297.3 250.2 0.3 d0 l
310.6 220.3 307.3 217.0 0.3 d0 l
310.6 223.6 310.6 220.3 0.3 d0 l
307.3 227.0 310.6 223.6 0.3 d0 l
284.0 227.0 307.3 227.0 0.3 d0 l
297.3 227.0 297.3 217.0 0.3 d0 l
287.4 210.4 284.0 207.0 0.3 d0 l
294.0 210.4 287.4 210.4 0.3 d0 l
297.3 207.0 294.0 210.4 0.3 d0 l
297.3 200.4 297.3 207.0 0.3 d0 l
294.0 197.1 297.3 200.4 0.3 d0 l
287.4 197.1 294.0 197.1 0.3 d0 l
284.0 200.4 287.4 197.1 0.3 d0 l
284.0 207.0 284.0 200.4 0.3 d0 l
284.0 197.1 297.3 197.1 0.3 d0 l
297.3 187.1 297.3 180.5 0.3 d0 l
294.0 190.4 297.3 187.1 0.3 d0 l
290.7 187.1 294.0 190.4 0.3 d0 l
290.7 180.5 290.7 187.1 0.3 d0 l
287.4 177.2 290.7 180.5 0.3 d0 l
284.0 180.5 287.4 177.2 0.3 d0 l
284.0 190.4 284.0 180.5 0.3 d0 l
287.4 163.9 284.0 160.6 0.3 d0 l
310.6 163.9 287.4 163.9 0.3 d0 l
300.6 167.2 300.6 160.6 0.3 d0 l
284.0 130.7 310.6 130.7 0.3 d0 l
294.0 117.4 284.0 117.4 0.3 d0 l
297.3 120.7 294.0 117.4 0.3 d0 l
297.3 127.4 297.3 120.7 0.3 d0 l
294.0 130.7 297.3 127.4 0.3 d0 l
287.4 110.8 284.0 107.5 0.3 d0 l
294.0 110.8 287.4 110.8 0.3 d0 l
297.3 107.5 294.0 110.8 0.3 d0 l
297.3 100.8 297.3 107.5 0.3 d0 l
294.0 97.5 297.3 100.8 0.3 d0 l
287.4 97.5 294.0 97.5 0.3 d0 l
284.0 100.8 287.4 97.5 0.3 d0 l
284.0 107.5 284.0 100.8 0.3 d0 l
284.0 97.5 297.3 97.5 0.3 d0 l
284.0 80.9 284.0 90.9 0.3 d0 l
287.4 77.6 284.0 80.9 0.3 d0 l
294.0 77.6 287.4 77.6 0.3 d0 l
297.3 80.9 294.0 77.6 0.3 d0 l
297.3 90.9 297.3 80.9 0.3 d0 l
274.1 90.9 297.3 90.9 0.3 d0 l
284.0 61.0 284.0 70.9 0.3 d0 l
287.4 57.7 284.0 61.0 0.3 d0 l
294.0 57.7 287.4 57.7 0.3 d0 l
297.3 61.0 294.0 57.7 0.3 d0 l
297.3 70.9 297.3 61.0 0.3 d0 l
274.1 70.9 297.3 70.9 0.3 d0 l
284.0 47.7 284.0 37.7 0.3 d0 l
287.4 51.0 284.0 47.7 0.3 d0 l
297.3 51.0 287.4 51.0 0.3 d0 l
274.1 47.7 277.4 51.0 0.3 d0 l
274.1 41.1 274.1 47.7 0.3 d0 l
277.4 37.7 274.1 41.1 0.3 d0 l
297.3 37.7 277.4 37.7 0.3 d0 l
showpage
%%Trailer
