[symbol2]
bbox 32 32 320 288
uniq 46
[tools]
[attributes]
[layers]
<symbol>
l 100 0 0 80 155 flamSadEcStatus
r 0 32 32 320 288
[comments]
RCS: $Name:  $ $Id: flamSadEcStatus.sym,v 1.1 2006/09/14 22:28:00 gemvx Exp $
