[symbol2]
bbox 32 32 768 384
uniq 394
[tools]
[attributes]
[layers]
<symbol>
l 100 0 0 316 203 flamDcCommand
r 0 32 32 768 384
[comments]
RCS: "$Name:  $ $Id: flamDcCommand.sym,v 1.1 2006/09/14 22:27:45 gemvx Exp $"
