[symbol2]
bbox 32 32 288 704
uniq 34
[tools]
[attributes]
[layers]
<symbol>
l 100 0 0 100 363 trecsControl
r 0 32 32 288 704
[comments]
RCS: $Name:  $ $Id: trecsControl.sym,v 0.1 2003/02/15 03:02:14 trecs beta $
