[symbol2]
bbox 32 32 224 224
uniq 1174
[tools]
[attributes]
[layers]
<symbol>
r 0 32 32 224 224
l 100 0 0 50 123 trecsDcConfig
[comments]
RCS: "$Name:  $ $Id: trecsDcConfig.sym,v 0.1 2003/02/15 03:02:14 trecs beta $"
