[schematic2]
uniq 1
[tools]
[detail]
[cell use]
use egenSubB -160 -345 100 0 egenSubB#0
xform 0 -16 80
[comments]
RCS: "$Name:  $ $Id: egenSubFLAM.sch,v 0.0 2007/02/02 21:09:44 aaguayo Developmental $"
