[schematic2]
uniq 189
[tools]
[detail]
w 698 1067 -100 0 c#188 inhier.EC_MESS.P 592 1056 864 1056 egenSub.egenSub#160.H
w 698 1131 -100 0 c#187 inhier.EC_VAL.P 592 1120 864 1120 egenSub.egenSub#160.G
w 698 1451 -100 0 c#183 inhier.IS_MESS.P 592 1440 864 1440 egenSub.egenSub#160.B
w 698 1515 -100 0 c#184 inhier.IS_VAL.P 592 1504 864 1504 egenSub.egenSub#160.A
w 1258 1483 -100 0 CAR_IVAL egenSub.egenSub#160.OUTA 1152 1472 1424 1472 outhier.CAR_IMSS.p
w 1258 1419 -100 0 CAR_IMSS egenSub.egenSub#160.OUTB 1152 1408 1424 1408 outhier.CAR_IVAL.p
w 698 1195 -100 0 c#164 inhier.DC_MESS.P 592 1184 864 1184 egenSub.egenSub#160.F
w 698 1259 -100 0 c#163 inhier.DC_VAL.P 592 1248 864 1248 egenSub.egenSub#160.E
w 698 1323 -100 0 ABORT inhier.CC_MESS.P 592 1312 864 1312 egenSub.egenSub#160.D
w 698 1387 -100 0 START inhier.CC_VAL.P 592 1376 864 1376 egenSub.egenSub#160.C
s 2624 2032 100 1792 2000/12/04
s 2480 2032 100 1792 WNR
s 2208 2032 100 1792 Initial Layout
s 2016 2032 100 1792 A
s 2528 -240 100 1792 flamSubSysCombine.sch
s 2096 -272 100 1792 Author: WNR
s 2096 -240 100 1792 2000/12/04
s 2320 -240 100 1792 Rev: A
s 2432 -192 100 256 Flamingos Sub-system Status Combine
s 2096 -176 200 1792 FLAMINGOS
s 2240 -128 100 0 FLAMINGOS
[cell use]
use inhier 480 1504 100 0 IS_VAL
xform 0 592 1504
p 480 1376 100 0 0 revision:2.2
use inhier 464 1440 100 0 IS_MESS
xform 0 592 1440
use inhier 480 1376 100 0 CC_VAL
xform 0 592 1376
use inhier 464 1312 100 0 CC_MESS
xform 0 592 1312
use inhier 480 1248 100 0 DC_VAL
xform 0 592 1248
use inhier 464 1184 100 0 DC_MESS
xform 0 592 1184
use inhier 480 1120 100 0 EC_VAL
xform 0 592 1120
use inhier 464 1056 100 0 EC_MESS
xform 0 592 1056
use egenSub 864 711 100 0 egenSub#160
xform 0 1008 1136
p 641 485 100 0 0 FTA:LONG
p 641 485 100 0 0 FTB:STRING
p 641 453 100 0 0 FTC:LONG
p 641 421 100 0 0 FTD:STRING
p 641 389 100 0 0 FTE:LONG
p 641 325 100 0 0 FTF:STRING
p 641 325 100 0 0 FTG:LONG
p 641 293 100 0 0 FTH:STRING
p 641 485 100 0 0 FTVA:STRING
p 641 485 100 0 0 FTVB:LONG
p 928 672 100 0 1 INAM:flamIsNullGInit
p 928 640 100 0 1 SNAM:flamIsSubSysCombineProcess
p 1072 704 100 1024 1 name:$(top)$(cmd)Combine
p 1152 1418 75 0 -1 pproc(OUTB):PP
use outhier 1456 1472 100 0 CAR_IMSS
xform 0 1408 1472
use outhier 1456 1408 100 0 CAR_IVAL
xform 0 1408 1408
use tb200abc 1984 1991 100 0 tb200abc#1
xform 0 2336 2048
use bc200 -576 -408 -100 0 frame
xform 0 1104 896
use rb200abc 1984 -313 100 0 rb200abc#0
xform 0 2336 -192
[comments]
RCS: $Name:  $ $Id: flamSubSysCombine.sch,v 0.0 2007/02/02 21:09:44 aaguayo Developmental $
