[symbol2]
bbox -224 256 512 608
uniq 210
[tools]
[attributes]
[layers]
<symbol>
l 100 0 0 80 288 flamDcStatus
r 0 -224 256 512 608
[comments]
RCS: $Name:  $ $Id: flamDcStatus.sym,v 0.0 2007/02/02 21:09:44 aaguayo Developmental $
