[symbol2]
bbox 32 32 224 608
port 160 480 100 0 MESS symbol 2 224 480 0
port 48 480 100 0 ICID symbol 1 32 480 0
port 176 544 100 0 VAL symbol 2 224 544 0
port 48 544 100 0 DIR symbol 1 32 544 0
uniq 129
[tools]
[attributes]
[layers]
<symbol>
l 100 0 0 68 315 flamPause
r 0 32 32 224 608
[comments]
