[symbol2]
bbox 32 32 288 704
port 48 576 100 0 CLID symbol 1 32 576 0
port 48 608 100 0 DIR symbol 1 32 608 0
port 240 608 100 0 VAL symbol 2 288 608 0
port 224 576 100 0 MESS symbol 2 288 576 0
uniq 100
[tools]
[attributes]
[layers]
<symbol>
l 100 0 0 64 368 flamIsSystemCmds
r 0 32 32 288 704
[comments]
RCS: $Name:  $ $Id: flamIsSystemCmds.sym,v 0.0 2007/02/02 21:09:44 aaguayo Developmental $
