#
# $Name:  $
# $Id: ditherpats.txt 14 2008-06-11 01:49:45Z hon $
# $Locker:  $
#
Dither pattern is pat_2x2           .

The extra scale factors for MMT:
Default dither scale    = 0.1112
Extra dither scale      = 5
Net picture frame width = 50.04 arcseconds

The default pattern of absolute offsets wrt the catalog center,:
and the offsets wrt the first image are:

pos:      Xrel       Yrel     X_wrt_Im1    Y_wrt_Im1
0:      50.040,    -50.040,      0.000,      0.000
1:     -50.040,     50.040,   -100.080,    100.080
2:     -50.040,    -50.040,   -100.080,      0.000
3:      50.040,     50.040,      0.000,    100.080

----------------------------------------------
Dither pattern is pat_5box          .

0:       0.000,      0.000,      0.000,      0.000
1:      50.040,    -50.040,     50.040,    -50.040
2:     -50.040,     50.040,    -50.040,     50.040
3:     -50.040,    -50.040,    -50.040,    -50.040
4:      50.040,     50.040,     50.040,     50.040

----------------------------------------------
Dither pattern is pat_5plus         .

pos:      Xrel       Yrel     X_wrt_Im1    Y_wrt_Im1
0:       0.000,     50.040,      0.000,      0.000
1:     -50.040,      0.000,    -50.040,    -50.040
2:       0.000,      0.000,      0.000,    -50.040
3:      50.040,      0.000,     50.040,    -50.040
4:       0.000,    -50.040,      0.000,   -100.080

----------------------------------------------
Dither pattern is pat_3x3           .

pos:      Xrel       Yrel     X_wrt_Im1    Y_wrt_Im1
0:       0.000,      0.000,      0.000,      0.000
1:     -50.040,     50.040,    -50.040,     50.040
2:       0.000,     50.040,      0.000,     50.040
3:     -50.040,    -50.040,    -50.040,    -50.040
4:     -50.040,      0.000,    -50.040,      0.000
5:      50.040,    -50.040,     50.040,    -50.040
6:      50.040,     50.040,     50.040,     50.040
7:      50.040,      0.000,     50.040,      0.000
8:       0.000,    -50.040,      0.000,    -50.040

----------------------------------------------
Dither pattern is pat_4x4           .

pos:      Xrel       Yrel     X_wrt_Im1    Y_wrt_Im1
0:      50.040,    -50.040,      0.000,      0.000
1:     -25.020,     50.040,    -75.060,    100.080
2:      50.040,     50.040,      0.000,    100.080
3:     -25.020,    -25.020,    -75.060,     25.020
4:      25.020,    -50.040,    -25.020,      0.000
5:     -25.020,     25.020,    -75.060,     75.060
6:      25.020,     25.020,    -25.020,     75.060
7:      25.020,     50.040,    -25.020,    100.080
8:      50.040,    -25.020,      0.000,     25.020
9:     -50.040,    -50.040,   -100.080,      0.000
10:      25.020,    -25.020,    -25.020,     25.020
11:     -50.040,    -25.020,   -100.080,     25.020
12:      50.040,     25.020,      0.000,     75.060
13:     -25.020,    -50.040,    -75.060,      0.000
14:     -50.040,     25.020,   -100.080,     75.060
15:     -50.040,     50.040,   -100.080,    100.080

----------------------------------------------
Dither pattern is pat_5x5           .

pos:      Xrel       Yrel     X_wrt_Im1    Y_wrt_Im1
0:     -25.020,     25.020,      0.000,      0.000
1:       0.000,    -50.040,     25.020,    -75.060
2:      25.020,      0.000,     50.040,    -25.020
3:      25.020,     25.020,     50.040,      0.000
4:       0.000,      0.000,     25.020,    -25.020
5:     -50.040,      0.000,    -25.020,    -25.020
6:     -50.040,     50.040,    -25.020,     25.020
7:      50.040,     25.020,     75.060,      0.000
8:     -25.020,     50.040,      0.000,     25.020
9:       0.000,     25.020,     25.020,      0.000
10:     -25.020,    -25.020,      0.000,    -50.040
11:       0.000,    -25.020,     25.020,    -50.040
12:      25.020,    -50.040,     50.040,    -75.060
13:     -50.040,     25.020,    -25.020,      0.000
14:     -25.020,      0.000,      0.000,    -25.020
15:     -50.040,    -50.040,    -25.020,    -75.060
16:      25.020,     50.040,     50.040,     25.020
17:     -50.040,    -25.020,    -25.020,    -50.040
18:      25.020,    -25.020,     50.040,    -50.040
19:     -25.020,    -50.040,      0.000,    -75.060
20:      50.040,      0.000,     75.060,    -25.020
21:       0.000,     50.040,     25.020,     25.020
22:      50.040,    -25.020,     75.060,    -50.040
23:      50.040,    -50.040,     75.060,    -75.060
24:      50.040,     50.040,     75.060,     25.020

