[symbol2]
bbox 32 32 224 224
uniq 1057
[tools]
[attributes]
[layers]
<symbol>
l 100 0 0 50 123 flamDcPreAmp
r 0 32 32 224 224
[comments]
RCS: "$Name:  $ $Id: flamDcPreAmp.sym,v 0.0 2004/10/04 18:05:31 hon Developmental $"
