[schematic2]
uniq 112
[tools]
[detail]
s 2624 2032 100 1792 2000/11/12
s 2480 2032 100 1792 NWR
s 2336 2032 100 1792 Initial Layout
s 2112 2032 100 1792 A
s 2512 -240 100 1792 flamSadDcConfig.sch
s 2096 -272 100 1792 Author: NWR
s 2096 -240 100 1792 2000/11/12
s 2320 -240 100 1792 Rev: A
s 2432 -192 100 256 Flamingos DC Configuration
s 2096 -176 200 1792 FLAMINGOS
s 2240 -128 100 0 FLAMINGOS
[cell use]
use esirs -96 1671 100 0 esirs#7
xform 0 112 1824
p -160 1376 100 0 0 FTVL:LONG
p -32 1632 100 0 1 SCAN:Passive
p 64 1664 100 1024 -1 name:$(top)preResets
use esirs -96 1255 100 0 esirs#27
xform 0 112 1408
p -160 960 100 0 0 FTVL:LONG
p -32 1216 100 0 1 SCAN:Passive
p 64 1248 100 1024 -1 name:$(top)lutTimeout
use esirs 640 1671 100 0 esirs#31
xform 0 848 1824
p 576 1376 100 0 0 FTVL:LONG
p 704 1632 100 0 1 SCAN:Passive
p 800 1664 100 1024 -1 name:$(top)postResets
use esirs 640 1255 100 0 esirs#32
xform 0 848 1408
p 576 960 100 0 0 FTVL:LONG
p 704 1216 100 0 1 SCAN:Passive
p 800 1248 100 1024 -1 name:$(top)cycleType
use esirs 1344 1255 100 0 esirs#39
xform 0 1552 1408
p 1408 1216 100 0 1 SCAN:Passive
p 1504 1248 100 1024 -1 name:$(top)timer
use esirs 1344 1671 100 0 esirs#40
xform 0 1552 1824
p 1280 1376 100 0 0 FTVL:LONG
p 1408 1632 100 0 1 SCAN:Passive
p 1504 1664 100 1024 -1 name:$(top)pixelBaseClock
use esirs 2048 1655 100 0 esirs#41
xform 0 2256 1808
p 1984 1360 100 0 0 FTVL:LONG
p 2112 1616 100 0 1 SCAN:Passive
p 2208 1648 100 1024 -1 name:$(top)edtTimeout
use esirs 2048 1239 100 0 esirs#42
xform 0 2256 1392
p 1984 944 100 0 0 FTVL:LONG
p 2112 1200 100 0 1 SCAN:Passive
p 2208 1232 100 1024 -1 name:$(top)preampDacValue1
use esirs -96 839 100 0 esirs#80
xform 0 112 992
p -160 544 100 0 0 FTVL:LONG
p -32 800 100 0 1 SCAN:Passive
p 64 832 100 1024 -1 name:$(top)preampDacValue2
use esirs 640 839 100 0 esirs#81
xform 0 848 992
p 576 544 100 0 0 FTVL:LONG
p 704 800 100 0 1 SCAN:Passive
p 800 832 100 1024 -1 name:$(top)preampDacValue3
use esirs 1344 839 100 0 esirs#82
xform 0 1552 992
p 1280 544 100 0 0 FTVL:LONG
p 1408 800 100 0 1 SCAN:Passive
p 1504 832 100 1024 -1 name:$(top)preampDacValue4
use esirs 2048 839 100 0 esirs#84
xform 0 2256 992
p 1984 544 100 0 0 FTVL:LONG
p 2112 800 100 0 1 SCAN:Passive
p 2208 832 100 1024 -1 name:$(top)preampDacValue5
use esirs 1344 455 100 0 esirs#85
xform 0 1552 608
p 1280 160 100 0 0 FTVL:LONG
p 1408 416 100 0 1 SCAN:Passive
p 1504 448 100 1024 -1 name:$(top)preampDacValue6
use esirs 640 455 100 0 esirs#86
xform 0 848 608
p 576 160 100 0 0 FTVL:LONG
p 704 416 100 0 1 SCAN:Passive
p 800 448 100 1024 -1 name:$(top)preampDacValue7
use esirs -96 455 100 0 esirs#87
xform 0 112 608
p -160 160 100 0 0 FTVL:LONG
p -32 416 100 0 1 SCAN:Passive
p 64 448 100 1024 -1 name:$(top)preampDacValue8
use esirs -96 71 100 0 esirs#88
xform 0 112 224
p -160 -224 100 0 0 FTVL:LONG
p -32 32 100 0 1 SCAN:Passive
p 64 64 100 1024 -1 name:$(top)preampDacValue9
use esirs 640 71 100 0 esirs#89
xform 0 848 224
p 576 -224 100 0 0 FTVL:LONG
p 704 32 100 0 1 SCAN:Passive
p 800 64 100 1024 -1 name:$(top)preampDacValue10
use esirs 1344 71 100 0 esirs#90
xform 0 1552 224
p 1280 -224 100 0 0 FTVL:LONG
p 1408 32 100 0 1 SCAN:Passive
p 1504 64 100 1024 -1 name:$(top)preampDacValue11
use esirs 2048 455 100 0 esirs#91
xform 0 2256 608
p 1984 160 100 0 0 FTVL:LONG
p 2112 416 100 0 1 SCAN:Passive
p 2208 448 100 1024 -1 name:$(top)preampDacValue12
use esirs 2048 71 100 0 esirs#92
xform 0 2256 224
p 1984 -224 100 0 0 FTVL:LONG
p 2112 32 100 0 1 SCAN:Passive
p 2208 64 100 1024 -1 name:$(top)preampDacValue13
use esirs 1344 -329 100 0 esirs#93
xform 0 1552 -176
p 1280 -624 100 0 0 FTVL:LONG
p 1408 -368 100 0 1 SCAN:Passive
p 1504 -336 100 1024 -1 name:$(top)preampDacValue14
use esirs 640 -329 100 0 esirs#94
xform 0 848 -176
p 576 -624 100 0 0 FTVL:LONG
p 704 -368 100 0 1 SCAN:Passive
p 800 -336 100 1024 -1 name:$(top)preampDacValue15
use esirs -96 -329 100 0 esirs#95
xform 0 112 -176
p -160 -624 100 0 0 FTVL:LONG
p -32 -368 100 0 1 SCAN:Passive
p 64 -336 100 1024 -1 name:$(top)preampDacValue16
use esirs -96 -729 100 0 esirs#96
xform 0 112 -576
p -160 -1024 100 0 0 FTVL:LONG
p -32 -768 100 0 1 SCAN:Passive
p 64 -736 100 1024 -1 name:$(top)preampDacValue17
use esirs 640 -729 100 0 esirs#97
xform 0 848 -576
p 576 -1024 100 0 0 FTVL:LONG
p 704 -768 100 0 1 SCAN:Passive
p 800 -736 100 1024 -1 name:$(top)preampDacValue18
use esirs 1344 -729 100 0 esirs#98
xform 0 1552 -576
p 1280 -1024 100 0 0 FTVL:LONG
p 1408 -768 100 0 1 SCAN:Passive
p 1504 -736 100 1024 -1 name:$(top)preampDacValue19
use esirs 2080 -729 100 0 esirs#99
xform 0 2288 -576
p 2016 -1024 100 0 0 FTVL:LONG
p 2144 -768 100 0 1 SCAN:Passive
p 2240 -736 100 1024 -1 name:$(top)preampDacValue20
use esirs 2080 -1113 100 0 esirs#100
xform 0 2288 -960
p 2016 -1408 100 0 0 FTVL:LONG
p 2144 -1152 100 0 1 SCAN:Passive
p 2240 -1120 100 1024 -1 name:$(top)preampDacValue21
use esirs 1344 -1113 100 0 esirs#101
xform 0 1552 -960
p 1280 -1408 100 0 0 FTVL:LONG
p 1408 -1152 100 0 1 SCAN:Passive
p 1504 -1120 100 1024 -1 name:$(top)preampDacValue22
use esirs 640 -1113 100 0 esirs#102
xform 0 848 -960
p 576 -1408 100 0 0 FTVL:LONG
p 704 -1152 100 0 1 SCAN:Passive
p 800 -1120 100 1024 -1 name:$(top)preampDacValue23
use esirs -96 -1113 100 0 esirs#103
xform 0 112 -960
p -160 -1408 100 0 0 FTVL:LONG
p -32 -1152 100 0 1 SCAN:Passive
p 64 -1120 100 1024 -1 name:$(top)preampDacValue24
use esirs -96 -1881 100 0 esirs#104
xform 0 112 -1728
p -160 -2176 100 0 0 FTVL:LONG
p -32 -1920 100 0 1 SCAN:Passive
p 64 -1888 100 1024 -1 name:$(top)preampDacValue32
use esirs 640 -1881 100 0 esirs#105
xform 0 848 -1728
p 576 -2176 100 0 0 FTVL:LONG
p 704 -1920 100 0 1 SCAN:Passive
p 800 -1888 100 1024 -1 name:$(top)preampDacValue31
use esirs 1344 -1881 100 0 esirs#106
xform 0 1552 -1728
p 1280 -2176 100 0 0 FTVL:LONG
p 1408 -1920 100 0 1 SCAN:Passive
p 1504 -1888 100 1024 -1 name:$(top)preampDacValue30
use esirs 2080 -1881 100 0 esirs#107
xform 0 2288 -1728
p 2016 -2176 100 0 0 FTVL:LONG
p 2144 -1920 100 0 1 SCAN:Passive
p 2240 -1888 100 1024 -1 name:$(top)preampDacValue29
use esirs 2080 -1497 100 0 esirs#108
xform 0 2288 -1344
p 2016 -1792 100 0 0 FTVL:LONG
p 2144 -1536 100 0 1 SCAN:Passive
p 2240 -1504 100 1024 -1 name:$(top)preampDacValue28
use esirs 1344 -1497 100 0 esirs#109
xform 0 1552 -1344
p 1280 -1792 100 0 0 FTVL:LONG
p 1408 -1536 100 0 1 SCAN:Passive
p 1504 -1504 100 1024 -1 name:$(top)preampDacValue27
use esirs 640 -1497 100 0 esirs#110
xform 0 848 -1344
p 576 -1792 100 0 0 FTVL:LONG
p 704 -1536 100 0 1 SCAN:Passive
p 800 -1504 100 1024 -1 name:$(top)preampDacValue26
use esirs -96 -1497 100 0 esirs#111
xform 0 112 -1344
p -160 -1792 100 0 0 FTVL:LONG
p -32 -1536 100 0 1 SCAN:Passive
p 64 -1504 100 1024 -1 name:$(top)preampDacValue25
use tb200abc 1984 1991 100 0 tb200abc#1
xform 0 2336 2048
use bc200 -576 -408 -100 0 frame
xform 0 1104 896
use rb200abc 1984 -313 100 0 rb200abc#0
xform 0 2336 -192
[comments]
RCS: $Name:  $ $Id: flamSadDcConfig.sch,v 0.0 2004/10/04 18:05:31 hon Developmental $
