[symbol2]
bbox 32 32 320 288
uniq 27
[tools]
[attributes]
[layers]
<symbol>
l 100 0 0 74 155 flamSadObsConfig
r 0 32 32 320 288
[comments]
RCS: $Name:  $ $Id: flamSadObsConfig.sym,v 0.0 2004/10/04 18:05:31 hon Developmental $
