[symbol2]
bbox 0 -96 256 480
port 16 -32 100 0 EC_MESS symbol 1 0 -32 0
port 16 32 100 0 EC_VAL symbol 1 0 32 0
port 144 224 100 0 CAR_IVAL symbol 2 256 224 0
port 144 160 100 0 CAR_IMSS symbol 2 256 160 0
port 16 96 100 0 DC_MESS symbol 1 0 96 0
port 16 160 100 0 DC_VAL symbol 1 0 160 0
port 16 224 100 0 CC_MESS symbol 1 0 224 0
port 16 288 100 0 CC_VAL symbol 1 0 288 0
port 16 352 100 0 IS_MESS symbol 1 0 352 0
port 16 416 100 0 IS_VAL symbol 1 0 416 0
uniq 185
[tools]
[attributes]
[layers]
<symbol>
l 100 0 0 32 -80 trecsSubSysCombine
r 0 0 -96 256 480
[comments]
RCS: $Name:  $ $Id: trecsSubSysCombine.sym,v 0.1 2003/02/15 03:02:14 trecs beta $
